{
    "swagger": "2.0",
    "info": {
        "title": "L5 Swagger API",
        "description": "L5 Swagger API description",
        "contact": {
            "email": "mrkrishnsharma@gmail.com"
        },
        "version": "1.0.0"
    },
    "host": "localhost:8080",
    "basePath": "/api",
    "schemes": [
        "http",
        "https"
    ],
    "paths": {
        "/users": {
            "get": {
                "summary": "Get list of users",
                "description": "Returns list of users",
                "responses": {
                    "200": {
                        "description": "successful operation"
                    }
                }
            },
            "post": {
                "summary": "Store a newly created resource in storage.",
                "description": "create new user",
                "parameters": [
                    {
                        "name": "body",
                        "in": "body",
                        "required": true,
                        "schema": {
                            "$ref": "#/definitions/StoreRequest"
                        }
                    }
                ],
                "responses": {
                    "201": {
                        "description": "Created"
                    },
                    "422": {
                        "description": "Unprocessable Entity"
                    }
                }
            }
        },
        "/users/{id}": {
            "get": {
                "summary": "Get user information",
                "description": "Returns users data",
                "parameters": [
                    {
                        "name": "id",
                        "in": "path",
                        "description": "user id",
                        "required": true,
                        "type": "integer"
                    }
                ],
                "responses": {
                    "200": {
                        "description": "successful operation"
                    },
                    "404": {
                        "description": "Resource Not Found"
                    }
                }
            },
            "delete": {
                "summary": "delete user",
                "parameters": [
                    {
                        "name": "id",
                        "in": "path",
                        "required": true,
                        "type": "integer"
                    }
                ],
                "responses": {
                    "204": {
                        "description": "no content deleted."
                    }
                }
            },
            "patch": {
                "summary": "update a resource in storage.",
                "description": "update new user",
                "parameters": [
                    {
                        "name": "id",
                        "in": "path",
                        "required": true,
                        "type": "integer"
                    },
                    {
                        "name": "body",
                        "in": "body",
                        "required": true,
                        "schema": {
                            "$ref": "#/definitions/UpdateRequest"
                        }
                    }
                ],
                "responses": {
                    "200": {
                        "description": "updated"
                    },
                    "422": {
                        "description": "Unprocessable Entity"
                    }
                }
            }
        }
    },
    "definitions": {
        "StoreRequest": {
            "required": [
                "first_name",
                "last_name",
                "mobile",
                "email",
                "address",
                "dob"
            ],
            "properties": {
                "first_name": {
                    "description": "first name",
                    "type": "integer"
                },
                "last_name": {
                    "description": "last name",
                    "type": "string"
                },
                "mobile": {
                    "description": "mobile",
                    "type": "string"
                },
                "email": {
                    "description": "email",
                    "type": "string"
                },
                "address": {
                    "description": "address",
                    "type": "string"
                },
                "dob": {
                    "description": "dob",
                    "type": "string"
                }
            }
        },
        "UpdateRequest": {
            "required": [
                "first_name",
                "last_name",
                "mobile",
                "email",
                "address",
                "dob"
            ],
            "properties": {
                "first_name": {
                    "description": "first name",
                    "type": "integer"
                },
                "last_name": {
                    "description": "last name",
                    "type": "string"
                },
                "mobile": {
                    "description": "mobile",
                    "type": "string"
                },
                "email": {
                    "description": "email",
                    "type": "string"
                },
                "address": {
                    "description": "address",
                    "type": "string"
                },
                "dob": {
                    "description": "dob",
                    "type": "string"
                }
            }
        }
    }
}